<?xml version="1.0" encoding="UTF-8" standalone="no"?>
<svg
   xmlns:dc="http://purl.org/dc/elements/1.1/"
   xmlns:cc="http://creativecommons.org/ns#"
   xmlns:rdf="http://www.w3.org/1999/02/22-rdf-syntax-ns#"
   xmlns:svg="http://www.w3.org/2000/svg"
   xmlns="http://www.w3.org/2000/svg"
   viewBox="0 0 59.999999 50"
   height="50"
   width="60"
   xml:space="preserve"
   id="svg2"
   version="1.1"><metadata
     id="metadata8"><rdf:RDF><cc:Work
         rdf:about=""><dc:format>image/svg+xml</dc:format><dc:type
           rdf:resource="http://purl.org/dc/dcmitype/StillImage" /><dc:title></dc:title></cc:Work></rdf:RDF></metadata><defs
     id="defs6" /><g
     transform="matrix(1.3333333,0,0,-1.3333333,0,50.00002)"
     id="g10"><g
       transform="matrix(0.10482581,0,0,0.10482581,-20.710268,-15.050011)"
       style="fill:#b3b3b3;fill-opacity:1"
       id="g4626"><path
         style="fill:#b3b3b3;fill-opacity:1;fill-rule:nonzero;stroke:none;stroke-width:1.33333325"
         d="M 399.38867,157.89844 C 325.74999,200.65689 284.17773,276.07552 284.76953,356.25 c 16.63085,1.18749 34.44661,-2.37565 48.69727,2.96875 2.97069,25.53776 4.16015,51.66926 16.03906,73.04687 42.16014,89.08072 135.39843,125.89518 229.82422,118.7754 79.57812,-7.1276 160.9349,-67.70834 182.91015,-146.09375 5.34896,-13.06836 1.7819,-30.2845 8.90821,-42.75977 h 46.91601 c 1.1849,-82.54686 -39.78971,-153.81119 -109.86523,-200.13086 -11.87891,12.46875 -17.2181,28.50716 -31.47461,38.60156 -68.88672,-45.72721 -175.78256,-42.7591 -245.86328,-2.96679 -13.06251,-12.47526 -20.78191,-27.91668 -31.47266,-39.79297 z m 137.18555,20.1914 C 486.09181,221.44075 480.74739,289.14583 474.80859,353.875 l -58.19726,-1.7793 c 4.74609,-62.94988 24.94401,-127.08984 84.33008,-161.5332 11.28256,-5.9414 22.5651,-10.6914 35.63281,-12.47266 z m 13.0664,0 c 3.5573,58.19987 -1.19076,116.99284 -1.7871,175.78516 h -59.98047 c 5.34505,-65.32617 5.3457,-137.18425 61.76757,-175.78516 z m 11.2793,1.18946 c 29.09767,11.8763 33.85287,44.54231 42.75781,70.07422 5.34506,34.4453 13.06771,67.70051 10.10157,105.70898 h -54.04688 c 0,-57.01303 -1.18879,-119.96354 1.1875,-175.7832 z m 11.28516,0 c 50.47525,11.28385 90.26563,62.35417 101.54687,109.86718 5.34896,21.37827 7.72527,43.3483 8.91407,65.91602 H 626.8418 c -2.3776,-65.32617 -5.94272,-131.24088 -54.63672,-175.7832 z m -58.79688,1.18554 C 439.77019,204.8138 410.67057,282.61002 405.32617,352.0957 L 344.75,350.9043 c 1.78189,-58.79036 39.79167,-111.05599 89.08203,-141.33789 24.94271,-14.25586 50.47721,-25.53646 79.57617,-29.10157 z m 77.20508,0 c 59.98047,9.50456 120.55534,47.50782 149.06055,103.33399 8.90625,23.1621 19.00781,45.13216 17.22265,72.45117 H 695.13477 C 691.56837,284.98307 663.66145,208.37696 590.61328,180.46484 Z M 344.75,362.1875 l 60.57617,1.78711 c 1.18684,69.4759 29.69402,138.36849 95.61524,171.02734 C 441.55534,526.0931 379.78842,477.39583 354.84766,416.82812 Z m 71.86133,1.78711 h 57.01172 c 3.5638,64.7259 8.9056,130.05078 55.82226,175.77734 -54.63801,-8.31249 -89.67447,-67.69987 -104.52148,-114.61133 z m 73.04297,0 58.19922,1.18164 -2.97071,175.78711 c -33.2539,-12.47396 -39.78775,-51.07683 -48.09961,-81.36328 -5.9388,-30.88021 -11.87825,-62.94662 -7.1289,-95.60547 z m 68.29492,1.18164 h 54.63476 c -2.97005,62.35676 -5.33855,130.05925 -52.85156,174.5957 h -2.96875 z m 70.07617,0 54.64063,1.18945 c -3.5638,67.70117 -30.28777,134.80795 -93.24219,167.4668 l -21.37695,5.93945 c 45.1341,-45.1276 55.22721,-107.48632 57.01367,-171.62695 z m 65.92188,1.18945 62.94921,1.7793 c -1.1901,63.54427 -48.10025,119.96159 -103.33203,149.6543 -20.79166,8.91406 -41.57162,17.82031 -65.32812,20.19531 70.08072,-27.32032 103.33334,-100.36524 105.71094,-171.62891 z"
         transform="matrix(0.75000002,0,0,-0.75000002,0,595.2754)"
         id="path12" /><path
         d="m 324.0376,469.27881 4.45459,1.3374 -5.34668,-3.56396 c 0,3.56396 -6.6792,8.0166 -1.33496,9.79882 -2.2251,-2.22607 0,-5.78906 2.22705,-7.57226 z"
         style="fill:#b3b3b3;fill-opacity:1;fill-rule:nonzero;stroke:none"
         id="path14" /><path
         d="m 336.0625,472.39844 h -2.22607 v 4.45263 c 1.3374,-0.89013 1.7832,-2.67041 2.22607,-4.45263 z"
         style="fill:#b3b3b3;fill-opacity:1;fill-rule:nonzero;stroke:none"
         id="path16" /><path
         d="m 339.18115,468.39209 v 2.22412 h 3.11865 z"
         style="fill:#b3b3b3;fill-opacity:1;fill-rule:nonzero;stroke:none"
         id="path18" /><path
         d="m 494.62598,470.61621 4.45605,-1.3374 z"
         style="fill:#b3b3b3;fill-opacity:1;fill-rule:nonzero;stroke:none"
         id="path20" /><path
         d="m 331.60791,466.16211 c -2.22559,-0.89209 -4.45264,-2.2251 -6.23389,-3.11963 l 5.34522,4.00977 z"
         style="fill:#b3b3b3;fill-opacity:1;fill-rule:nonzero;stroke:none"
         id="path22" /><path
         d="m 317.71973,474.87305 27.08935,12.99951 9.48389,-19.76123 -2.81152,-1.3501 -0.42383,0.8833 -21.46631,-10.30127 0.42383,-0.88183 -2.81201,-1.3501 -9.4834,19.76172 m 3.6372,-0.37061 7.40918,-15.43945 21.49756,10.31689 -7.40918,15.43848 -21.49756,-10.31592 m 18.52002,-4.78808 c -1.77002,1.39257 -3.35254,3.19433 -4.74414,5.40283 -0.11279,0.18115 -0.26025,0.40869 -0.44385,0.68213 l -10.15429,-4.87256 -0.81543,1.69775 10.06152,4.82764 -0.85742,1.78711 2.62451,1.25879 0.85791,-1.7876 6.56104,3.14941 0.81543,-1.69775 -6.53125,-3.13379 c 1.30957,-2.19531 2.49218,-3.72412 3.5498,-4.5918 0.0186,0.22559 0.0454,0.41162 0.0801,0.55469 0.31689,1.74219 0.44629,3.15234 0.3916,4.22998 -0.0225,0.20654 -0.0342,0.47217 -0.0361,0.79736 l 2.61133,0.0859 c -0.0186,-2.68554 -0.33106,-5.10693 -0.93799,-7.26074 1.18945,-0.71436 1.97119,-0.98145 2.34521,-0.80029 0.27149,0.12842 0.29981,1.19287 0.0845,3.18847 l 2.69775,-0.17236 c 0.0312,-1.72168 -0.11328,-2.93018 -0.43262,-3.62598 -0.31933,-0.69531 -0.8125,-1.20361 -1.479,-1.52392 -1.021,-0.49072 -2.4458,-0.2959 -4.27637,0.58008 -0.10986,-0.25293 -0.19189,-0.45411 -0.24658,-0.60743 -0.43262,-1.07617 -0.99658,-2.16943 -1.69287,-3.28173 l -2.63623,0.52636 0.80761,1.11963 c 0.36573,0.52002 0.62842,0.96192 0.78614,1.32715 -2.04492,-1.50635 -5.13819,-3.55225 -9.27979,-6.13477 l -1.35791,1.62745 c 3.90772,2.11084 7.32373,4.229 10.24951,6.35693 l 0.65674,-1.36719 0.74121,1.65821 m -13.79199,0.46289 7.78076,3.73291 2.4126,-5.02784 -7.77978,-3.73291 -2.41358,5.02784 m 6.18897,1.04345 -3.09375,-1.48388 0.91015,-1.89746 3.09375,1.48437 -0.91015,1.89697 m 7.53759,9.12549 c -0.14013,0.0776 -0.24853,0.14356 -0.32617,0.19678 -0.79687,0.48535 -1.43945,0.7832 -1.92773,0.89355 l -0.25049,0.0415 1.89209,1.50488 c 0.47363,-0.0796 0.90674,-0.20654 1.29785,-0.38086 l 1.30908,-0.56445 -1.99463,-1.69141 z"
         style="fill:#b3b3b3;fill-opacity:1;fill-rule:nonzero;stroke:none"
         id="path50" /><path
         d="m 367.57813,489.89893 c 1.99169,1.6582 3.35449,3.79003 4.08935,6.40039 l 2.76318,0.35156 -0.39843,-1.21924 4.96875,1.12793 c 0.22656,-0.26562 0.40576,-0.48389 0.54052,-0.65478 1.16065,-1.35791 2.40967,-2.4209 3.74463,-3.18848 0.125,0.1792 0.23291,0.32861 0.32471,0.45117 0.5415,0.74023 1.021,1.60303 1.4375,2.58398 l 0.11523,0.27784 -3.92089,-0.89014 -0.42286,1.85938 7.13233,1.62011 0.38379,-1.69433 c -0.55225,-1.84766 -1.51367,-3.61231 -2.88379,-5.29639 l 0.35351,-0.14453 c 1.20264,-0.49756 2.8711,-0.9126 5.01026,-1.24658 l -1.20703,-2.35596 c -0.15039,0.0332 -0.27246,0.0557 -0.37061,0.0674 -1.34277,0.2793 -2.64111,0.67871 -3.89648,1.19678 l 0.25439,-1.12109 -10.13916,-2.30372 -0.26562,1.16895 -1.79541,-1.63721 c -0.67334,-0.58886 -1.28077,-1.08642 -1.82764,-1.49463 l -2.56006,1.09913 c 0.30762,0.20459 0.55615,0.36132 0.74561,0.46972 1.0957,0.70069 2.00586,1.39258 2.72656,2.07471 0.0566,0.0635 0.14551,0.14307 0.26611,0.23633 l -1.33398,0.39941 -1.30322,0.25586 1.34472,1.43457 1.42041,-0.30469 1.22852,-0.39795 0.59033,0.68555 0.45508,0.65576 -1.38623,0.31348 c -0.35157,0.0859 -0.72217,0.15185 -1.11084,0.19824 -0.0718,0 -0.18164,0.009 -0.32569,0.0254 l 1.01221,1.48633 1.43164,-0.20312 c 0.2959,-0.0498 0.58301,-0.11866 0.86475,-0.20508 0.0772,-0.0327 0.19336,-0.0723 0.34717,-0.12012 l 0.48291,1.16162 0.28955,1.06934 -3.6167,-0.82129 c -1.05957,-2.0127 -2.44239,-3.69141 -4.15137,-5.03272 l -1.4624,1.27442 -0.82227,-3.42334 c 0.11524,-0.0913 0.21582,-0.16895 0.30225,-0.23242 2.13721,-1.58936 3.35791,-3.05079 3.66162,-4.38526 0.43017,-1.89453 -0.79688,-3.16846 -3.67969,-3.82275 l -0.57471,-0.13086 c -0.0459,-0.0103 -0.12695,-0.021 -0.24365,-0.0293 l -1.24072,2.0249 c 0.11963,-0.005 0.21338,-0.001 0.28174,0.0142 0.49023,0.0269 0.92822,0.0859 1.31054,0.17334 1.14844,0.26026 1.64258,0.74952 1.48047,1.46534 -0.11523,0.50781 -0.58007,1.19677 -1.39404,2.0664 -0.81396,0.86768 -1.68848,1.58936 -2.62402,2.1626 0.58935,1.89062 1.04541,3.79102 1.36914,5.70459 0.0351,0.25781 0.0918,0.58838 0.16553,0.9917 l -3.54786,-0.80567 4.37989,-19.27587 -2.87305,-0.65284 -4.79248,21.08887 9.22705,2.0957 0.31396,-1.38281 -0.26074,-1.51562 c -0.1206,-0.61231 -0.19726,-1.00684 -0.22851,-1.18067 -0.0308,-0.17383 -0.0845,-0.36181 -0.15576,-0.56347 m 10.10791,-9.14063 c -1.4502,-2.27148 -3.2876,-4.30127 -5.50879,-6.0957 l -2.74073,1.10937 c 2.69043,2.13282 4.52979,3.93946 5.52198,5.41797 l 2.72754,-0.43164 m 6.02392,-1.64307 0.0703,-0.30957 c 0.1958,-0.85742 0.0933,-1.53418 -0.3042,-2.02685 -0.39746,-0.49072 -1.38525,-0.91553 -2.96142,-1.27393 l -2.16309,-0.49072 -1.23681,2.00049 2.5913,0.48926 c 0.76563,0.17382 1.09229,0.50781 0.98047,1 l -0.958,4.22216 -7.8418,-1.78222 -0.43897,1.93359 18.99219,4.31543 0.43897,-1.93408 -8.14405,-1.84912 0.9751,-4.29444 m -4.73242,14.10206 c -0.40381,-2.08204 -1.38086,-3.87549 -2.93408,-5.38233 l 7.97607,1.81104 c -1.72558,0.61132 -3.40674,1.80273 -5.04199,3.57129 m 12.25488,-14.19825 c -1.24658,0.68701 -2.35644,1.23828 -3.32715,1.65332 l -3.32031,1.47705 2.02588,1.56348 c 2.41943,-0.73877 4.57666,-1.63574 6.47559,-2.69287 z"
         style="fill:#b3b3b3;fill-opacity:1;fill-rule:nonzero;stroke:none"
         id="path52" /><path
         d="m 412.0166,497.03662 -0.54443,0.71582 2.50244,0.53223 c 0.1582,-0.21338 0.29394,-0.38574 0.40918,-0.51807 0.66016,-0.84082 1.30371,-1.86865 1.93555,-3.08252 l 0.17089,-0.37012 -2.85253,-0.67285 -0.2002,0.56592 -0.16602,0.51514 c -0.39355,-0.0601 -0.71972,-0.11328 -0.97265,-0.16065 -2.40869,-0.40966 -5.18653,-0.77392 -8.33203,-1.09277 -0.46338,-0.0435 -1.04151,-0.10156 -1.73535,-0.17383 l -0.73487,2.11279 1.14258,0.0342 1.00635,0.0361 0.0576,4.67285 c 4.66845,0.15332 8.40429,0.53955 11.20898,1.15723 l 1.6084,-1.70997 c -3.15039,-0.56298 -6.37696,-0.92285 -9.6836,-1.07617 l -0.0356,-2.83886 2.70752,0.28564 2.95019,0.37891 -0.44238,0.68896 m 2.32715,-16.20117 c -3.49951,-0.85205 -7.38965,-1.43897 -11.66602,-1.76123 l -1.083,2.04541 c 4.53173,0.23633 8.29004,0.67822 11.27832,1.32617 l 1.4707,-1.61035 m 15.20117,1.57226 -24.53467,0.30665 0.13038,10.49414 24.53613,-0.30664 -0.13184,-10.49415 m -21.39453,2.05372 18.29785,-0.22901 0.0195,1.46729 -18.29834,0.229 -0.019,-1.46728 m 0.0361,2.91015 18.29786,-0.229 0.0176,1.34668 -18.29834,0.229 -0.0171,-1.34668 m 18.34864,3.78321 -18.2959,0.229 -0.0161,-1.22315 18.29541,-0.229 0.0166,1.22315 m 5.55859,9.42334 c -0.0908,-1.75977 -0.21191,-3.20948 -0.36621,-4.34913 -0.0107,-0.88183 -0.33008,-1.51562 -0.95899,-1.89795 -0.62792,-0.3833 -1.98339,-0.56298 -4.06152,-0.53515 -0.64746,0.007 -1.13086,0.0288 -1.45508,0.0674 l -0.66797,2.01416 c 0.60059,-0.0742 1.47754,-0.11719 2.63282,-0.13086 0.76172,-0.0107 1.2207,0.13086 1.37402,0.42188 0.15332,0.29297 0.25098,0.71972 0.29297,1.28125 0.041,0.56299 0.0752,0.97265 0.10351,1.23437 l -4.29785,0.0532 c -0.36523,-1.49414 -1.04394,-2.5996 -2.03418,-3.3125 -0.99218,-0.71435 -2.47168,-1.33642 -4.44336,-1.86474 l -1.70996,1.78174 c 3.12696,0.63037 4.87403,1.77392 5.24024,3.43359 l -4.50391,0.0566 0.0244,1.93213 14.83105,-0.18603 m -0.3418,-21.89161 c -4.00976,0.8169 -7.36621,1.39649 -10.06347,1.73926 -0.50879,0.0566 -1.20118,0.14649 -2.07715,0.27197 l 1.30371,1.69629 c 4.52246,-0.43213 8.48047,-0.98633 11.86719,-1.66504 z"
         style="fill:#b3b3b3;fill-opacity:1;fill-rule:nonzero;stroke:none"
         id="path54" /><path
         d="m 442.99023,486.28516 c 4.21875,-0.1709 7.48438,0.23242 9.79395,1.20703 l -5.34668,1.32226 2.18945,8.85889 24.12305,-5.96777 -2.19043,-8.85889 -14.73535,3.64697 -1.18164,-0.59082 c -0.32324,-0.15674 -0.68164,-0.30322 -1.07422,-0.44092 -0.0752,-0.0132 -0.17871,-0.0483 -0.30957,-0.0996 l 18.46875,-4.56787 c -0.70313,-2.55078 -1.36719,-4.59423 -1.99707,-6.1333 -0.63477,-1.5415 -1.45996,-2.48828 -2.48633,-2.83789 -1.03027,-0.35107 -2.82129,-0.20996 -5.37598,0.42188 -0.91992,0.22754 -1.48144,0.37549 -1.67675,0.44092 l -0.47559,2.41064 c 0.88184,-0.28564 2.03809,-0.60596 3.47461,-0.96045 1.07715,-0.26709 1.86621,-0.20215 2.36914,0.19434 0.50293,0.39795 1.30176,2.22461 2.39356,5.48242 l -2.32422,0.57324 c -1.13379,-1.21435 -2.74219,-2.22852 -4.82129,-3.04053 -2.08106,-0.81299 -4.51465,-1.33984 -7.30176,-1.583 -2.78516,-0.24219 -4.55762,-0.27002 -5.31934,-0.082 l -1.49316,2.33448 c 4.24707,-0.14307 7.47559,0.0361 9.68164,0.54052 2.20801,0.50489 4.16016,1.39502 5.8584,2.67237 l -3.76856,0.93164 c -1.76953,-0.99024 -3.69043,-1.66504 -5.76757,-2.02637 -2.07618,-0.35986 -4.94239,-0.51709 -8.59668,-0.46875 l -1.34082,2.37305 c 5.27832,-0.31494 9.25976,0.0537 11.94921,1.10156 l -4.81152,1.18994 c -1.51758,-0.26318 -3.66699,-0.4375 -6.44922,-0.52148 l -1.45801,2.47754 m 8.16993,3.5747 17.59277,-4.35302 0.45117,1.82861 -17.59375,4.35254 -0.45019,-1.82813 m 18.87402,0.82471 -17.59668,4.35254 -0.40332,-1.63916 17.59375,-4.35254 z"
         style="fill:#b3b3b3;fill-opacity:1;fill-rule:nonzero;stroke:none"
         id="path56" /><path
         d="m 491.08203,476.59131 22.68652,-10.79932 -0.12695,-0.26562 c -1.38867,-2.91455 -2.54199,-5.15088 -3.46191,-6.70948 -0.92285,-1.5581 -1.77246,-2.56543 -2.55176,-3.02539 -0.72559,-0.39453 -1.47656,-0.55761 -2.24805,-0.48877 -0.77539,0.0718 -2.38965,0.6919 -4.85156,1.8628 l -0.3457,0.16357 -0.0615,0.0312 0.0176,2.45703 c 0.72949,-0.40332 1.41895,-0.75781 2.06641,-1.06592 l 0.65722,-0.31152 c 0.19336,-0.0742 0.33008,-0.13281 0.417,-0.17236 1.2705,-0.60596 2.32812,-0.43067 3.16406,0.5249 0.84082,0.95606 1.91602,2.81006 3.22754,5.56348 l 0.3789,0.7959 0.0615,0.13232 -19.93555,9.48682 c -2.1758,-3.60493 -4.9551,-6.43599 -8.33986,-8.49116 l -1.50489,2.80224 c 2.31446,1.26416 4.08692,2.77295 5.31934,4.52539 1.22949,1.75293 2.40137,3.79346 3.50977,6.1211 l 2.70996,5.69775 24.66015,-11.73633 -2.74414,-5.76465 -21.87402,10.41016 -0.83008,-1.74414 m 0.74805,-4.47461 13.83203,-6.58496 -2.87207,-6.02979 -13.8291,6.58448 2.86914,6.03027 m 10.16406,-7.11328 -8.25976,3.93262 -1.10547,-2.32129 8.26074,-3.93067 1.10449,2.31934 m -9.17676,15.23291 19.08887,-9.08594 0.93652,1.96484 -19.09179,9.08741 z"
         style="fill:#b3b3b3;fill-opacity:1;fill-rule:nonzero;stroke:none"
         id="path58" /><path
         d="m 238.00488,315.3916 2.17578,-10.13086 c 0.43067,-2.00439 0.65723,-3.52099 0.68213,-4.5459 0.0239,-1.02636 -0.17773,-1.9917 -0.60644,-2.89746 -0.42822,-0.90576 -1.08008,-1.72363 -1.95947,-2.45605 -0.87842,-0.73047 -1.93213,-1.22852 -3.16065,-1.49219 -1.3335,-0.28711 -2.62353,-0.22851 -3.87402,0.16992 -1.25,0.40039 -2.271,1.08692 -3.06201,2.05957 -0.17725,-1.64941 -0.79004,-3.01855 -1.83545,-4.11035 -1.04639,-1.09082 -2.396,-1.81445 -4.0503,-2.1709 -1.30224,-0.27832 -2.62597,-0.28222 -3.97168,-0.0117 -1.34619,0.27247 -2.48681,0.792 -3.42138,1.56153 -0.93506,0.76953 -1.6333,1.8164 -2.09473,3.13867 -0.2876,0.83008 -0.79492,2.87353 -1.52051,6.12842 l -1.85254,8.62451 28.55127,6.13281 m -14.95361,-8.56592 -7.64941,-1.64257 1.01757,-4.74024 c 0.396,-1.84375 0.70557,-3.00146 0.92969,-3.47266 0.31934,-0.72705 0.83301,-1.26513 1.54102,-1.61376 0.70703,-0.34864 1.56884,-0.41504 2.58349,-0.19629 0.8584,0.18457 1.54688,0.52539 2.06592,1.02343 0.51904,0.49756 0.84082,1.12452 0.96484,1.88135 0.12256,0.75635 -0.0659,2.29932 -0.56591,4.62842 l -0.88721,4.13232 m 11.31201,2.43164 -6.57226,-1.41211 0.72265,-3.36279 c 0.4292,-1.99707 0.72803,-3.2334 0.89649,-3.70361 0.30517,-0.85401 0.79199,-1.4707 1.46289,-1.85303 0.66943,-0.38232 1.46386,-0.4751 2.38232,-0.27734 0.87891,0.18994 1.5459,0.55957 2.00244,1.11084 0.45557,0.55127 0.65088,1.26611 0.58399,2.14697 -0.0459,0.52197 -0.32666,1.99072 -0.84571,4.40479 z"
         style="fill:#b3b3b3;fill-opacity:1;fill-rule:nonzero;stroke:none"
         id="path60" /><path
         d="m 243.38428,291.67383 1.88525,-4.88281 -14.80273,-5.71289 c -2.34961,-0.90625 -3.84912,-1.55274 -4.49854,-1.94336 -1.03906,-0.63868 -1.7456,-1.48047 -2.12109,-2.52149 -0.37647,-1.04297 -0.30225,-2.24219 0.22119,-3.59765 0.53125,-1.37696 1.25195,-2.29102 2.16162,-2.74415 0.91016,-0.45312 1.85889,-0.57031 2.8457,-0.35156 0.98682,0.2168 2.56202,0.74219 4.72412,1.57813 l 15.11963,5.83398 1.88477,-4.88281 -14.33496,-5.53125 c -3.27686,-1.26563 -5.64258,-2.02734 -7.09668,-2.28516 -1.45361,-0.25781 -2.78369,-0.21679 -3.98682,0.13282 -1.20361,0.34765 -2.31054,1.00585 -3.31982,1.97851 -1.00879,0.9707 -1.88184,2.41016 -2.61817,4.31836 -0.88916,2.30078 -1.26171,4.16406 -1.11914,5.58398 0.14209,1.42188 0.56153,2.66407 1.25733,3.72657 0.69531,1.0625 1.52734,1.90625 2.49804,2.5332 1.44141,0.92188 3.68848,1.9707 6.74219,3.15039 z"
         style="fill:#b3b3b3;fill-opacity:1;fill-rule:nonzero;stroke:none"
         id="path62" /><path
         d="m 227.09814,254.50195 25.31495,14.55469 5.4663,-9.50586 c 1.37452,-2.38867 2.14502,-4.25781 2.31299,-5.60156 0.16797,-1.3457 -0.14258,-2.67774 -0.93261,-3.99609 -0.78907,-1.32032 -1.93164,-2.41211 -3.42872,-3.27149 -1.90087,-1.0957 -3.75292,-1.50586 -5.55468,-1.24023 -1.80176,0.26757 -3.42481,1.28515 -4.86768,3.05078 -0.0874,-1.33985 -0.33594,-2.54883 -0.74267,-3.62305 -0.40772,-1.07422 -1.28711,-2.71289 -2.63819,-4.91406 l -3.36719,-5.56641 -3.07373,5.34961 3.64405,6.44922 c 1.28759,2.29102 2.06347,3.79492 2.32617,4.51563 0.26172,0.72265 0.34961,1.37695 0.26221,1.96679 -0.0869,0.58789 -0.4292,1.4043 -1.02784,2.44336 l -0.52832,0.91992 -10.55566,-6.07226 -2.60938,4.54101 m 17.2251,3.86524 1.91114,-3.32227 c 1.23876,-2.15625 2.11523,-3.44336 2.63134,-3.85937 0.51367,-0.41797 1.11084,-0.63477 1.79053,-0.64844 0.6792,-0.01 1.39795,0.19922 2.15479,0.63281 0.84814,0.49024 1.41894,1.08203 1.71142,1.78516 0.2915,0.69922 0.29688,1.45312 0.0166,2.25976 -0.15332,0.39844 -0.75244,1.50782 -1.7998,3.32813 l -2.01514,3.50195 z"
         style="fill:#b3b3b3;fill-opacity:1;fill-rule:nonzero;stroke:none"
         id="path64" /><path
         d="m 241.91064,230.02148 22.97999,18.01954 11.83154,-15.08594 -3.90283,-3.0625 -8.60108,10.9668 -5.07373,-3.97657 7.99024,-10.18945 -3.90235,-3.05664 -7.98974,10.18945 -6.19971,-4.86328 8.90723,-11.36133 -3.90186,-3.05664 z"
         style="fill:#b3b3b3;fill-opacity:1;fill-rule:nonzero;stroke:none"
         id="path66" /><path
         d="m 275.49023,193.21289 -4.06298,3.91602 2.97998,6.31054 -7.48145,7.20703 -6.11914,-3.28515 -4.04492,3.89844 27.48389,14.07031 4.02783,-3.88086 -12.78321,-28.23633 m 1.10938,14.99805 4.90918,10.26953 -9.99463,-5.36914 z"
         style="fill:#b3b3b3;fill-opacity:1;fill-rule:nonzero;stroke:none"
         id="path68" /><path
         d="m 296.73633,213.66211 4.2417,-3.06641 -9.29785,-12.85937 c -1.47559,-2.03906 -2.38038,-3.39844 -2.71289,-4.07813 -0.52198,-1.10156 -0.65674,-2.19336 -0.40381,-3.26953 0.25341,-1.08203 0.96875,-2.04687 2.14599,-2.89844 1.1958,-0.86328 2.29834,-1.23828 3.30811,-1.12304 1.00928,0.11719 1.86816,0.53515 2.57812,1.2539 0.7085,0.72461 1.74219,2.02344 3.10059,3.89844 l 9.49707,13.13477 4.2417,-3.06836 -9.0044,-12.45117 c -2.05859,-2.84571 -3.62695,-4.77344 -4.70507,-5.78321 -1.07911,-1.00781 -2.2168,-1.69922 -3.41602,-2.0625 -1.19824,-0.36133 -2.48584,-0.41406 -3.86133,-0.14843 -1.37451,0.26562 -2.89062,0.99609 -4.54834,2.19335 -1.99951,1.44727 -3.32715,2.80274 -3.98242,4.07422 -0.65527,1.27149 -0.98047,2.53711 -0.97607,3.8086 0.004,1.27148 0.2417,2.42968 0.71484,3.48633 0.70605,1.55468 2.01855,3.6621 3.93652,6.31445 z"
         style="fill:#b3b3b3;fill-opacity:1;fill-rule:nonzero;stroke:none"
         id="path70" /><path
         d="m 317.29883,182.03516 c 1.25195,2.71093 2.66113,4.82031 4.22656,6.32812 1.15918,1.10742 2.44971,1.98633 3.87012,2.63672 1.4209,0.65039 2.80078,0.98047 4.14013,0.99219 1.78565,0.0273 3.63379,-0.4043 5.54346,-1.28321 3.45654,-1.5996 5.65967,-4.0957 6.61084,-7.48437 0.95069,-3.39063 0.42578,-7.25391 -1.57715,-11.58203 -1.98535,-4.29297 -4.56884,-7.17969 -7.74902,-8.65235 -3.18115,-1.47265 -6.49365,-1.4121 -9.93848,0.18165 -3.48828,1.61328 -5.70556,4.10156 -6.64795,7.46484 -0.94384,3.36523 -0.43603,7.16797 1.52149,11.39844 m 4.98535,-2.08203 c -1.39893,-3.02735 -1.84766,-5.60352 -1.34522,-7.73047 0.50342,-2.125 1.69727,-3.62696 3.58252,-4.5 1.88379,-0.86914 3.78809,-0.80664 5.7129,0.17968 1.92431,0.99414 3.60449,3.03516 5.03662,6.13282 1.41552,3.06445 1.88183,5.61914 1.40234,7.66797 -0.47998,2.05273 -1.69385,3.52539 -3.64209,4.42773 -1.94922,0.89844 -3.87305,0.86523 -5.77051,-0.10938 -1.89599,-0.97265 -3.55566,-2.99609 -4.97656,-6.06835 z"
         style="fill:#b3b3b3;fill-opacity:1;fill-rule:nonzero;stroke:none"
         id="path72" /><path
         d="m 340.02832,156.39648 8.72363,27.86719 16.98389,-5.3164 -1.48145,-4.73243 -11.98925,3.75586 -2.05762,-6.57617 10.35986,-3.24414 -1.48144,-4.73047 -10.3584,3.24414 -3.7041,-11.83203 z"
         style="fill:#b3b3b3;fill-opacity:1;fill-rule:nonzero;stroke:none"
         id="path74" /><path
         d="m 373.26465,147.48633 4.1416,28.90625 17.61768,-2.52539 -0.70459,-4.90625 -12.43457,1.78125 -0.97754,-6.81836 10.74511,-1.54102 -0.7041,-4.90625 -10.74463,1.53711 -1.75927,-12.27148 z"
         style="fill:#b3b3b3;fill-opacity:1;fill-rule:nonzero;stroke:none"
         id="path76" /><path
         d="m 396.52344,158.76367 c 0.0513,2.98438 0.48926,5.48242 1.31152,7.49414 0.61328,1.48438 1.4375,2.80664 2.47608,3.97852 1.0371,1.16601 2.16699,2.02344 3.38671,2.57812 1.62256,0.74219 3.48487,1.09766 5.58936,1.06055 3.80762,-0.0664 6.83105,-1.45703 9.07031,-4.17383 2.23926,-2.7207 3.31641,-6.46289 3.23438,-11.23437 -0.083,-4.73047 -1.28125,-8.41016 -3.59571,-11.04297 -2.31543,-2.63281 -5.37011,-3.91602 -9.16552,-3.84961 -3.84278,0.0684 -6.875,1.44922 -9.09619,4.14648 -2.22266,2.70118 -3.292,6.38086 -3.21094,11.04297 m 5.40136,0.10742 c -0.0566,-3.33398 0.57325,-5.87109 1.89258,-7.61523 1.31885,-1.74023 3.01612,-2.62891 5.09229,-2.66797 2.07519,-0.0332 3.79346,0.78906 5.15576,2.46875 1.36035,1.68359 2.06934,4.23242 2.12988,7.64649 0.0586,3.37109 -0.5459,5.89648 -1.8125,7.57812 -1.26758,1.68359 -2.97363,2.54297 -5.11963,2.57813 -2.14648,0.0391 -3.89306,-0.77149 -5.23437,-2.42579 -1.34277,-1.65625 -2.04443,-4.17773 -2.10401,-7.5625 z"
         style="fill:#b3b3b3;fill-opacity:1;fill-rule:nonzero;stroke:none"
         id="path78" /><path
         d="m 427.77637,144.36719 -3.40235,29.00195 10.88965,1.27734 c 2.73926,0.32032 4.75977,0.29297 6.06153,-0.084 1.30175,-0.375 2.40332,-1.18164 3.30566,-2.42969 0.90234,-1.24804 1.45508,-2.72851 1.65625,-4.44336 0.25586,-2.17382 -0.0957,-4.03906 -1.05176,-5.59179 -0.95605,-1.54883 -2.5293,-2.64063 -4.71972,-3.27149 1.19726,-0.61133 2.208,-1.31054 3.03515,-2.10937 0.82715,-0.79688 1.98633,-2.25391 3.47559,-4.36133 l 3.78906,-5.28516 -6.12793,-0.7207 -4.49023,5.89062 c -1.59571,2.08594 -2.67383,3.39258 -3.2334,3.91602 -0.5586,0.52734 -1.12696,0.86523 -1.70313,1.01758 -0.57422,0.15625 -1.45996,0.1582 -2.65136,0.0215 l -1.05372,-0.125 1.41895,-12.09375 -5.19824,-0.60937 m 3.2334,17.35547 3.80859,0.44531 c 2.46777,0.28711 3.99609,0.58789 4.58301,0.89648 0.58593,0.3086 1.02051,0.77149 1.2998,1.39258 0.28028,0.61914 0.36914,1.36328 0.26758,2.22852 -0.11328,0.97461 -0.43555,1.73242 -0.96289,2.27539 -0.52832,0.54492 -1.21777,0.84765 -2.07227,0.90429 -0.42578,0.0176 -1.68066,-0.0957 -3.76757,-0.33789 l -4.01563,-0.47265 z"
         style="fill:#b3b3b3;fill-opacity:1;fill-rule:nonzero;stroke:none"
         id="path80" /><path
         d="m 455.81543,148.19336 -7.0498,28.33789 18.60644,4.62695 1.19824,-4.81054 -13.53027,-3.36524 1.55762,-6.25586 12.56543,3.12696 1.19824,-4.81446 -12.56543,-3.12304 1.90039,-7.65039 14.00976,3.48632 1.19825,-4.81054 z"
         style="fill:#b3b3b3;fill-opacity:1;fill-rule:nonzero;stroke:none"
         id="path82" /><path
         d="m 480.09277,154.81641 -9.46289,27.62695 4.95215,1.69531 9.46289,-27.62695 z"
         style="fill:#b3b3b3;fill-opacity:1;fill-rule:nonzero;stroke:none"
         id="path84" /><path
         d="m 497.8418,173.2793 -2.05957,4.50781 10.22461,4.67383 4.85839,-10.64453 c -0.49902,-1.53516 -1.50488,-3.14844 -3.01562,-4.83203 -1.51563,-1.6875 -3.24023,-2.97071 -5.17578,-3.85743 -2.45899,-1.12109 -4.87403,-1.51953 -7.23535,-1.18359 -2.36231,0.33398 -4.50489,1.37695 -6.41895,3.13281 -1.91211,1.75586 -3.4541,3.91211 -4.62109,6.47071 -1.26856,2.77539 -1.88086,5.4746 -1.83985,8.10351 0.042,2.62695 0.78809,4.9668 2.24219,7.02539 1.10547,1.57422 2.7793,2.875 5.02735,3.90039 2.91992,1.33203 5.5166,1.6875 7.78906,1.06641 2.26953,-0.62891 4.19531,-2.04688 5.77636,-4.25781 l -4.25292,-3.15625 c -0.92774,1.14843 -2.01856,1.89062 -3.2793,2.22656 -1.25684,0.33789 -2.56836,0.1914 -3.93848,-0.4336 -2.07324,-0.94921 -3.38281,-2.44921 -3.92285,-4.50976 -0.54102,-2.05469 -0.13867,-4.55469 1.20898,-7.50195 1.45313,-3.17774 3.16114,-5.27539 5.13086,-6.29493 1.96582,-1.02343 3.95996,-1.07226 5.97461,-0.15234 0.99512,0.45508 1.89356,1.13281 2.69239,2.03516 0.79882,0.89843 1.41601,1.83007 1.84668,2.78906 l -1.54981,3.38476 z"
         style="fill:#b3b3b3;fill-opacity:1;fill-rule:nonzero;stroke:none"
         id="path86" /><path
         d="m 518.9375,171.84375 -15.77441,24.57422 4.27343,2.74219 19.49024,-10.69532 -10.55078,16.4375 4.08105,2.61719 15.77539,-24.57422 -4.4082,-2.82812 -19.13672,10.43554 10.33008,-16.08984 z"
         style="fill:#b3b3b3;fill-opacity:1;fill-rule:nonzero;stroke:none"
         id="path88" /><path
         d="m 554.76172,198.18359 -16.53711,17.72852 -5.56055,-5.18555 -3.38183,3.625 14.94531,13.94336 3.38184,-3.62695 -5.55762,-5.18359 16.53613,-17.73047 z"
         style="fill:#b3b3b3;fill-opacity:1;fill-rule:nonzero;stroke:none"
         id="path90" /><path
         d="m 568.12598,211.15234 -22.57227,18.52735 6.95508,8.47461 c 1.75,2.13086 3.22363,3.51367 4.42187,4.14453 1.19825,0.63476 2.55664,0.81445 4.07129,0.54492 1.51172,-0.27148 2.9375,-0.95312 4.27344,-2.05273 1.69434,-1.39063 2.73438,-2.97461 3.12305,-4.75391 0.38574,-1.78125 0.0107,-3.6582 -1.12891,-5.63086 1.28418,0.38867 2.5,0.58398 3.64649,0.58398 1.15039,0 2.99609,-0.24218 5.53027,-0.73046 l 6.39551,-1.17969 -3.91211,-4.76563 -7.32129,1.125 c -2.59668,0.39649 -4.28125,0.58985 -5.04883,0.57813 -0.76758,-0.01 -1.41113,-0.1582 -1.93066,-0.44922 -0.51758,-0.28906 -1.16114,-0.89648 -1.92188,-1.82422 l -0.67187,-0.82031 9.41113,-7.72461 -3.32031,-4.04688 m -9.70996,14.74219 2.43066,2.96485 c 1.57715,1.91796 2.46875,3.19531 2.67969,3.82617 0.20605,0.62695 0.19629,1.26367 -0.0312,1.90039 -0.22754,0.64062 -0.67774,1.24219 -1.35352,1.79492 -0.75781,0.61914 -1.51465,0.94336 -2.27246,0.9668 -0.75781,0.0273 -1.46387,-0.23243 -2.12109,-0.78321 -0.31739,-0.28515 -1.14063,-1.23632 -2.47657,-2.85937 l -2.56543,-3.12695 5.70997,-4.6836 z"
         style="fill:#b3b3b3;fill-opacity:1;fill-rule:nonzero;stroke:none"
         id="path92" /><path
         d="m 597.88965,253.76367 -2.89551,-4.84179 -6.81836,1.47851 -5.33398,-8.91797 4.583,-5.21875 -2.88281,-4.82226 -19.91308,23.59765 2.87109,4.79883 30.38965,-6.07422 m -14.8584,-2.30664 -11.11328,2.46289 7.4873,-8.52344 z"
         style="fill:#b3b3b3;fill-opacity:1;fill-rule:nonzero;stroke:none"
         id="path94" /><path
         d="m 573.11621,269.74023 3.58887,8.82813 c 0.80957,1.99219 1.59765,3.44141 2.36523,4.3457 1.04102,1.21289 2.35938,2.07813 3.96094,2.59375 1.59766,0.51563 3.36719,0.6836 5.31055,0.50586 1.9414,-0.18164 4.17675,-0.78711 6.71093,-1.8164 2.22852,-0.90625 4.0459,-1.92969 5.46094,-3.07422 1.72266,-1.39844 2.96973,-2.90039 3.73633,-4.50391 0.58203,-1.21484 0.84375,-2.63867 0.7793,-4.27344 -0.0518,-1.2207 -0.4375,-2.72265 -1.16504,-4.50976 l -3.69434,-9.08985 -27.05371,10.99414 m 6.56445,2.98243 17.86524,-7.26172 1.46387,3.59765 c 0.54785,1.34766 0.85742,2.35157 0.92578,3.02149 0.0967,0.87109 -0.0127,1.66992 -0.33008,2.40039 -0.32031,0.72851 -1.01563,1.50195 -2.09082,2.32031 -1.07715,0.81445 -2.6582,1.64844 -4.74219,2.49414 -2.08691,0.84766 -3.75293,1.33594 -5.00293,1.46485 -1.24707,0.12695 -2.30469,0.0254 -3.16797,-0.30664 -0.86133,-0.33399 -1.58789,-0.9043 -2.17676,-1.7129 -0.44335,-0.60546 -1.06445,-1.88867 -1.86328,-3.85351 z"
         style="fill:#b3b3b3;fill-opacity:1;fill-rule:nonzero;stroke:none"
         id="path96" /><path
         d="m 610.37695,285.62891 -28.3955,6.8164 4.47558,18.64356 4.82129,-1.15723 -3.25391,-13.5542 6.26758,-1.50439 3.02344,12.58984 4.82129,-1.15723 -3.02051,-12.58984 7.65918,-1.84082 3.37012,14.03809 4.82129,-1.15723 z"
         style="fill:#b3b3b3;fill-opacity:1;fill-rule:nonzero;stroke:none"
         id="path98" /></g></g></svg>