<?xml version="1.0" encoding="UTF-8" standalone="no"?>
<svg
   xmlns:dc="http://purl.org/dc/elements/1.1/"
   xmlns:cc="http://creativecommons.org/ns#"
   xmlns:rdf="http://www.w3.org/1999/02/22-rdf-syntax-ns#"
   xmlns:svg="http://www.w3.org/2000/svg"
   xmlns="http://www.w3.org/2000/svg"
   viewBox="0 0 406.97501 142.78751"
   height="142.78751"
   width="406.97501"
   xml:space="preserve"
   version="1.1"
   id="svg3355"><metadata
     id="metadata3361"><rdf:RDF><cc:Work
         rdf:about=""><dc:format>image/svg+xml</dc:format><dc:type
           rdf:resource="http://purl.org/dc/dcmitype/StillImage" /><dc:title></dc:title></cc:Work></rdf:RDF></metadata><defs
     id="defs3359" /><g
     transform="matrix(1.25,0,0,-1.25,0,142.7875)"
     id="g3363"><g
       transform="scale(0.1,0.1)"
       id="g3365"><path
         id="path3367"
         style="fill:#100f0d;fill-opacity:1;fill-rule:nonzero;stroke:none"
         d="m 1024.01,745.602 0,-177.004 c 0,-18.77 -9.55,-21.707 -18.76,-24.649 l 0,-6.258 81.7,0 0,6.258 c -9.2,2.942 -18.78,5.879 -18.78,24.649 l 0,177.004 c 0,10.671 3.32,13.242 17.3,13.242 38.27,0 57.04,-0.735 70.65,-22.071 l 4.78,2.93 -15.44,45.262 -199.093,0 -15.449,-45.262 4.785,-2.93 c 16.563,20.965 29.442,22.071 71.017,22.071 13.98,0 17.29,-2.571 17.29,-13.242" /><path
         id="path3369"
         style="fill:#100f0d;fill-opacity:1;fill-rule:nonzero;stroke:none"
         d="m 1117.12,720.211 c 12.13,-3.313 18.4,-6.25 18.4,-24.648 l 0,-126.965 c 0,-18.77 -6.27,-21.707 -18.4,-24.649 l 0,-6.258 154.18,0 17.66,44.161 -4.79,3.308 c -15.45,-20.222 -31.64,-25.027 -52.99,-25.027 l -39.74,0 c -12.51,0 -15.44,0.379 -15.44,12.519 l 0,52.989 48.19,0 c 18.78,0 21.71,-4.414 24.67,-15.45 l 7.35,0 0,52.989 -7.35,0 c -2.96,-11.047 -5.89,-15.832 -24.67,-15.832 l -48.19,0 0,44.523 c 0,9.199 2.93,12.149 15.44,12.149 0,0 30.91,0 33.86,0 21.71,0 33.12,-5.52 49.67,-23.184 l 4.79,3.309 -15.45,42.324 -147.19,0 0,-6.258" /><path
         id="path3371"
         style="fill:#100f0d;fill-opacity:1;fill-rule:nonzero;stroke:none"
         d="m 1561.98,693.727 30.22,-82.434 -61.64,0 31.42,82.434 z m -246.53,4.773 47.12,-66.621 -44.55,-63.281 c -13.61,-19.129 -21.71,-21.707 -34.22,-24.649 l 0,-6.258 71.4,0 0,6.258 c -13.63,2.578 -19.53,7.735 -10.31,22.082 l 31.19,48.77 32.85,-47.297 c 12.12,-17.293 -0.76,-22.09 -11.79,-23.555 l 0,-6.258 129.14,0 0,6.258 c -12.87,2.199 -18.76,6.621 -12.14,24.289 l 8.42,22.078 77.32,0 8.1,-22.078 c 5.15,-14.355 3.31,-22.09 -11.79,-24.289 l 0,-6.258 79.49,0 0,6.258 c -9.2,2.942 -17.66,10.676 -21.71,21.34 l -61.45,161.18 -41.95,0 -58.88,-150.145 c -6.28,-15.597 -11.98,-22.929 -18.21,-27.16 -4.87,3.066 -9.34,7.754 -15.27,16.125 l -51.75,73.367 41.83,59.102 c 11.04,15.82 20.24,19.14 31.27,22.453 l 0,6.258 -67.34,0 0,-6.258 c 13.98,-1.106 18.04,-8.828 9.94,-20.977 l -29.19,-43.254 -26.37,39.583 c -11.04,16.191 -2.95,22.812 9.2,24.648 l 0,6.258 -89.41,0 0,-6.258 c 12.49,-3.313 18.75,-6.992 29.06,-21.711" /><path
         id="path3373"
         style="fill:#100f0d;fill-opacity:1;fill-rule:nonzero;stroke:none"
         d="m 1692.97,537.691 c 0,2.95 2.96,9.2 6.62,9.2 8.46,-4.043 22.82,-12.512 49.31,-12.512 44.53,0 75.82,22.09 75.82,59.609 0,35.332 -19.52,49.68 -57.05,58.145 l -34.23,7.734 c -19.5,4.406 -25.75,9.934 -25.75,22.071 0,13.996 11.03,23.183 35.33,23.183 27.21,0 48.56,-12.891 64.01,-30.535 l 4.8,3.309 -14,48.574 -8.83,0 c 0,-4.043 -1.82,-8.465 -5.5,-8.465 -8.12,4.422 -20.62,11.406 -41.96,11.406 -38.27,0 -68.07,-19.875 -68.07,-55.937 0,-27.598 16.55,-44.883 52.61,-52.981 l 32.4,-7.371 c 21.71,-4.785 29.41,-12.5 29.41,-26.125 0,-18.758 -15.07,-28.699 -39.73,-28.699 -34.6,0 -56.67,18.027 -74.69,39.004 l -4.79,-3.313 15.08,-56.297 9.21,0" /><path
         id="path3375"
         style="fill:#100f0d;fill-opacity:1;fill-rule:nonzero;stroke:none"
         d="m 1003.46,491.617 c 11.4,-3.32 20.59,-6.262 20.59,-24.66 l 0,-185.469 c 0,-18.769 -9.19,-21.699 -20.59,-24.648 l 0,-6.25 85.38,0 0,6.25 c -11.42,2.949 -20.63,5.879 -20.63,24.648 l 0,185.469 c 0,18.398 9.21,21.34 20.63,24.66 l 0,6.25 -85.38,0 0,-6.25" /><path
         id="path3377"
         style="fill:#100f0d;fill-opacity:1;fill-rule:nonzero;stroke:none"
         d="m 1237.84,433.109 c 11.05,-3.32 17.31,-6.25 17.31,-24.648 l 0,-77.285 -1.11,0 -94.94,108.183 -55.56,0 0,-6.25 c 11.04,-4.785 18.39,-8.476 18.39,-24.648 l 0,-126.973 c 0,-17.656 -6.26,-21.699 -18.39,-24.648 l 0,-6.25 62.93,0 0,6.25 c -9.95,2.949 -19.51,6.992 -19.51,24.648 l 0,109.668 1.12,0 125.46,-143.144 6.62,0 0,160.449 c 0,18.398 9.21,21.328 16.57,24.648 l 0,6.25 -58.89,0 0,-6.25" /><path
         id="path3379"
         style="fill:#100f0d;fill-opacity:1;fill-rule:nonzero;stroke:none"
         d="m 1402.32,365.023 -34.2,7.735 c -19.52,4.414 -25.78,9.922 -25.78,22.07 0,13.985 11.05,23.184 35.34,23.184 27.23,0 48.56,-12.871 64.03,-30.528 l 4.78,3.301 -13.98,48.574 -8.84,0 c 0,-4.043 -1.83,-8.457 -5.52,-8.457 -8.09,4.414 -20.59,11.407 -41.94,11.407 -38.27,0 -68.08,-19.883 -68.08,-55.938 0,-27.598 16.56,-44.883 52.62,-52.988 l 32.38,-7.363 c 21.72,-4.786 29.44,-12.5 29.44,-26.133 0,-18.75 -15.08,-28.692 -39.74,-28.692 -34.59,0 -56.67,18.028 -74.7,39.004 l -4.78,-3.301 15.09,-56.308 9.2,0 c 0,2.949 2.93,9.199 6.61,9.199 8.47,-4.043 22.82,-12.519 49.32,-12.519 44.52,0 75.81,22.089 75.81,59.628 0,35.313 -19.52,49.668 -57.06,58.125" /><path
         id="path3381"
         style="fill:#100f0d;fill-opacity:1;fill-rule:nonzero;stroke:none"
         d="m 1470.4,439.359 -15.09,-48.574 4.78,-3.301 c 20.24,26.856 25.78,29.434 52.62,29.434 9.2,0 12.15,-0.742 12.15,-12.148 l 0,-123.282 c 0,-18.769 -5.51,-21.699 -20.6,-24.648 l 0,-6.25 80.95,0 0,6.25 c -14.71,2.949 -20.62,5.879 -20.62,24.648 l 0,123.282 c 0,11.406 2.96,12.148 12.16,12.148 26.85,0 33.85,-2.578 54.08,-29.434 l 4.8,3.301 -15.08,48.574 -150.15,0" /><path
         id="path3383"
         style="fill:#100f0d;fill-opacity:1;fill-rule:nonzero;stroke:none"
         d="m 1730.94,350.688 -32.4,0 0,50.039 c 0,12.128 2.95,15.449 12.15,15.449 l 20.98,0 c 22.8,0 36.04,-8.828 36.04,-30.918 0,-23.164 -15.06,-34.57 -36.77,-34.57 z m 67.33,-44.161 c -11.41,18.399 -23.19,26.485 -36.81,29.805 l 0,1.094 c 32.39,5.156 50.78,22.09 50.78,49.687 0,36.797 -29.43,52.246 -76.91,52.246 l -96.77,0 0,-6.25 c 12.15,-3.32 18.4,-6.25 18.4,-24.648 l 0,-126.973 c 0,-18.769 -6.25,-21.699 -18.4,-24.648 l 0,-6.25 79.12,0 0,6.25 c -11.41,2.949 -19.14,5.879 -19.14,24.648 l 0,47.11 19.51,0 c 22.81,0 26.13,-9.2 40.85,-40.098 12.14,-25.41 28.34,-41.23 58.87,-41.23 15.45,0 21.71,2.949 27.96,6.269 l 0,5.156 c -24.65,3.672 -32.76,23.907 -47.46,47.832" /><path
         id="path3385"
         style="fill:#100f0d;fill-opacity:1;fill-rule:nonzero;stroke:none"
         d="m 1965.69,433.109 c 9.55,-2.207 18.76,-6.25 18.76,-24.648 l 0,-93.106 c 0,-30.898 -11.77,-44.531 -46.74,-44.531 -37.15,0 -50.42,13.633 -50.42,44.531 l 0,93.106 c 0,18.398 7.01,22.441 18.4,24.648 l 0,6.25 -77.25,0 0,-6.25 c 11.39,-1.836 18.75,-6.25 18.75,-24.648 l 0,-96.055 c 0,-50.41 43.8,-65.136 85.01,-65.136 45.99,0 78.76,15.449 78.76,68.085 l 0,93.106 c 0,18.398 5.51,22.07 16.92,24.648 l 0,6.25 -62.19,0 0,-6.25" /><path
         id="path3387"
         style="fill:#100f0d;fill-opacity:1;fill-rule:nonzero;stroke:none"
         d="m 2161.45,316.82 -54.47,122.539 -67.69,0 0,-6.25 c 12.14,-3.32 18.39,-6.25 18.39,-24.648 l 0,-126.973 c 0,-16.543 -7,-20.957 -18.39,-24.648 l 0,-6.25 59.97,0 0,6.25 c -12.51,3.32 -18.02,8.105 -18.02,24.648 l 0,118.496 68.06,-152.343 5.16,0 66.23,152.343 0,-118.496 c 0,-18.769 -8.1,-22.07 -17.29,-24.648 l 0,-6.25 77.27,0 0,6.25 c -12.14,2.949 -18.4,5.879 -18.4,24.648 l 0,126.973 c 0,18.398 6.26,21.328 18.4,24.648 l 0,6.25 -66.6,0 -52.62,-122.539" /><path
         id="path3389"
         style="fill:#100f0d;fill-opacity:1;fill-rule:nonzero;stroke:none"
         d="m 2409.47,273.031 -39.74,0 c -12.52,0 -15.46,0.371 -15.46,12.52 l 0,52.969 48.2,0 c 18.78,0 21.71,-4.395 24.65,-15.43 l 7.36,0 0,52.969 -7.36,0 c -2.94,-11.036 -5.87,-15.821 -24.65,-15.821 l -48.2,0 0,44.532 c 0,9.199 2.94,12.148 15.46,12.148 0,0 30.9,0 33.85,0 21.69,0 33.1,-5.527 49.67,-23.184 l 4.79,3.301 -15.47,42.324 -147.19,0 0,-6.25 c 12.14,-3.32 18.42,-6.25 18.42,-24.648 l 0,-126.973 c 0,-18.769 -6.28,-21.699 -18.42,-24.648 l 0,-6.25 154.18,0 17.67,44.16 -4.78,3.32 c -15.46,-20.254 -31.64,-25.039 -52.98,-25.039" /><path
         id="path3391"
         style="fill:#100f0d;fill-opacity:1;fill-rule:nonzero;stroke:none"
         d="m 2605.98,433.109 c 11.03,-3.32 17.28,-6.25 17.28,-24.648 l 0,-77.285 -1.11,0 -94.94,108.183 -55.57,0 0,-6.25 c 11.04,-4.785 18.42,-8.476 18.42,-24.648 l 0,-126.973 c 0,-17.656 -6.26,-21.699 -18.42,-24.648 l 0,-6.25 62.93,0 0,6.25 c -9.94,2.949 -19.51,6.992 -19.51,24.648 l 0,109.668 1.09,0 125.49,-143.144 6.64,0 0,160.449 c 0,18.398 9.2,21.328 16.55,24.648 l 0,6.25 -58.85,0 0,-6.25" /><path
         id="path3393"
         style="fill:#100f0d;fill-opacity:1;fill-rule:nonzero;stroke:none"
         d="m 2682.14,439.359 -15.11,-48.574 4.78,-3.301 c 20.24,26.856 25.78,29.434 52.63,29.434 9.2,0 12.14,-0.742 12.14,-12.148 l 0,-123.282 c 0,-18.769 -5.53,-21.699 -20.59,-24.648 l 0,-6.25 80.96,0 0,6.25 c -14.73,2.949 -20.62,5.879 -20.62,24.648 l 0,123.282 c 0,11.406 2.95,12.148 12.14,12.148 26.86,0 33.86,-2.578 54.1,-29.434 l 4.77,3.301 -15.07,48.574 -150.13,0" /><path
         id="path3395"
         style="fill:#100f0d;fill-opacity:1;fill-rule:nonzero;stroke:none"
         d="m 2951.49,365.023 -34.21,7.735 c -19.52,4.414 -25.78,9.922 -25.78,22.07 0,13.985 11.04,23.184 35.33,23.184 27.21,0 48.57,-12.871 64.03,-30.528 l 4.78,3.301 -13.99,48.574 -8.82,0 c 0,-4.043 -1.86,-8.457 -5.54,-8.457 -8.09,4.414 -20.59,11.407 -41.95,11.407 -38.26,0 -68.05,-19.883 -68.05,-55.938 0,-27.598 16.55,-44.883 52.61,-52.988 l 32.39,-7.363 c 21.69,-4.786 29.44,-12.5 29.44,-26.133 0,-18.75 -15.08,-28.692 -39.75,-28.692 -34.6,0 -56.68,18.028 -74.69,39.004 l -4.81,-3.301 15.09,-56.308 9.21,0 c 0,2.949 2.95,9.199 6.61,9.199 8.47,-4.043 22.83,-12.519 49.32,-12.519 44.52,0 75.82,22.089 75.82,59.628 0,35.313 -19.53,49.668 -57.04,58.125" /><path
         id="path3397"
         style="fill:#ed1e24;fill-opacity:1;fill-rule:nonzero;stroke:none"
         d="m 686.523,862.719 -56.179,0 -10.754,-54.227 56.18,0 10.753,54.227 z m -63.828,-323.406 48.743,245.73 -56.184,0 -48.723,-245.73 56.164,0 z m 189.121,173.417 0,72.313 -115.957,0 -14.597,-72.957 41.707,0 -13.379,-67.051 -41.719,0 -14.465,-72.676 c -1.109,-4.933 -1.929,-8.488 -2.461,-11.914 -3.406,-22.226 6.321,-21.132 37.524,-21.132 l -14.27,-71.477 -54.582,0 c -51.597,0 -93.57,0.547 -82.664,53.293 1.707,8.242 3.789,16.23 5.274,24.101 l 19.503,99.805 -40.109,0 13.406,67.051 40.09,0 14.617,72.957 -37.527,0 0,109.961 -138.828,0 0,-223.738 -166.094,0 c 4.102,-58.008 55.457,-66.438 74.16,-107.657 12.879,-28.398 24.16,-78.32 61.809,-78.781 28.848,-0.351 28.848,37.297 65.945,37.297 37.078,0 53.555,-70.441 86.524,-128.43 24.726,-45.586 65.8,-76.113 103.015,-78.691 30.539,-2.129 45.325,8.262 45.325,8.262 -8.243,16.582 -12.364,33.125 -12.364,57.988 0,37.305 28.836,74.531 61.809,99.406 45.32,33.203 94.773,45.633 111.258,49.727 l 0,116.015 c 0,0 -32.95,17.645 -32.95,66.328" /></g></g></svg>